\relax 
\providecommand\hyper@newdestlabel[2]{}
\bbl@cs{beforestart}
\catcode `"\active 
\providecommand\HyperFirstAtBeginDocument{\AtBeginDocument}
\HyperFirstAtBeginDocument{\ifx\hyper@anchor\@undefined
\global\let\oldcontentsline\contentsline
\gdef\contentsline#1#2#3#4{\oldcontentsline{#1}{#2}{#3}}
\global\let\oldnewlabel\newlabel
\gdef\newlabel#1#2{\newlabelxx{#1}#2}
\gdef\newlabelxx#1#2#3#4#5#6{\oldnewlabel{#1}{{#2}{#3}}}
\AtEndDocument{\ifx\hyper@anchor\@undefined
\let\contentsline\oldcontentsline
\let\newlabel\oldnewlabel
\fi}
\fi}
\global\let\hyper@last\relax 
\gdef\HyperFirstAtBeginDocument#1{#1}
\providecommand\HyField@AuxAddToFields[1]{}
\providecommand\HyField@AuxAddToCoFields[2]{}
\babel@aux{polish}{}
\@writefile{lot}{\contentsline {table}{\numberline {1}{\ignorespaces Lista oznaczeń}}{3}{table.1}\protected@file@percent }
\@writefile{toc}{\contentsline {section}{\numberline {1}Wstęp}{4}{section.1}\protected@file@percent }
\@writefile{toc}{\contentsline {section}{\numberline {2}Wymagania systemowe}{4}{section.2}\protected@file@percent }
\@writefile{toc}{\contentsline {section}{\numberline {3}Funkcjonalność}{4}{section.3}\protected@file@percent }
\@writefile{toc}{\contentsline {section}{\numberline {4}Analiza problemu}{4}{section.4}\protected@file@percent }
\@writefile{toc}{\contentsline {section}{\numberline {5}Projekt techniczny}{5}{section.5}\protected@file@percent }
\@writefile{lof}{\contentsline {figure}{\numberline {1}{\ignorespaces Diagram klas}}{5}{figure.1}\protected@file@percent }
\@writefile{lof}{\contentsline {figure}{\numberline {2}{\ignorespaces Schemat blokowy działania programu}}{5}{figure.2}\protected@file@percent }
\@writefile{toc}{\contentsline {section}{\numberline {6}Opis realizacji}{6}{section.6}\protected@file@percent }
\@writefile{toc}{\contentsline {section}{\numberline {7}Wykonane testy}{7}{section.7}\protected@file@percent }
\@writefile{toc}{\contentsline {section}{\numberline {8}Użytkowanie programu}{8}{section.8}\protected@file@percent }
\@writefile{lof}{\contentsline {figure}{\numberline {3}{\ignorespaces Główne menu}}{8}{figure.3}\protected@file@percent }
\@writefile{toc}{\contentsline {section}{\numberline {9}Metodologia rozwoju i utrzymania programu}{9}{section.9}\protected@file@percent }
