\babel@toc {polish}{}
\contentsline {section}{\numberline {1}Wstęp}{4}{section.1}%
\contentsline {section}{\numberline {2}Wymagania systemowe}{4}{section.2}%
\contentsline {section}{\numberline {3}Funkcjonalność}{4}{section.3}%
\contentsline {section}{\numberline {4}Analiza problemu}{4}{section.4}%
\contentsline {section}{\numberline {5}Projekt techniczny}{5}{section.5}%
\contentsline {section}{\numberline {6}Opis realizacji}{6}{section.6}%
\contentsline {section}{\numberline {7}Wykonane testy}{7}{section.7}%
\contentsline {section}{\numberline {8}Użytkowanie programu}{8}{section.8}%
\contentsline {section}{\numberline {9}Metodologia rozwoju i utrzymania programu}{9}{section.9}%
